<?xml version="1.0" encoding="utf-8"?>
<!-- Generator: Adobe Illustrator 17.1.0, SVG Export Plug-In . SVG Version: 6.00 Build 0)  -->
<!DOCTYPE svg PUBLIC "-//W3C//DTD SVG 1.1//EN" "http://www.w3.org/Graphics/SVG/1.1/DTD/svg11.dtd">
<svg version="1.1" id="Layer_1" xmlns="http://www.w3.org/2000/svg" xmlns:xlink="http://www.w3.org/1999/xlink" x="0px" y="0px"
	 viewBox="0 0 2116.5 1869.9" enable-background="new 0 0 2116.5 1869.9" xml:space="preserve">
<path d="M2107.3,490L2107.3,490L1981,187c-30.4-72.8-82.7-75.9-82.7-75.9L1937.1,0c-65.4,9.2-116.3,77.5-116.3,77.5
	c-315.1,58.3-466.3,245.1-538.3,396.8c-53.2,43.5-139.9,127.4-139.9,127.4s-217,19.3-294,10.8c-77-8.5-233.3-109.1-404.4,0
	c-30.5,21.2-55.4,43.6-75.5,66.7C214.6,736.9-1.2,895.7,0,1331.7l86.8,87.4L115,1159l-13.2,272.6l47,58.1
	c0,0-23.9-412.2,146.8-651.5c-8.7,66.5,5.6,128.5,22,173.8c2.6,7.8,5.4,15.8,8.9,24.4c0,0,55.5,202-41.1,255.3
	c-43.3,28.7-1.8,73.7,0,106.6c1.8,32.8,18.6,233.7,18.6,233.7s-18.9,20.5-8.7,47.2c10.2,26.6,22.5,26.6,22.5,43
	s-18.4,20.5-22.5,51.2c-4.1,30.8,0,41,0,41h10.9c2.4,56.2,36.3,55.3,36.3,55.3h135.3l-33.2-63.7c-1.2-12.8-5.3-36.4-20.1-40.8
	c-20.5-6.1-26.6-34.8-14.3-55.3c12.3-20.5,14.3-51.2,0-88.1c-14.3-36.9-2-174.3-2-174.3s16.4-32.8,30.7-57.3
	c2.3-4,9.2-8.9,19.6-15.3c4.1,8.2,7.7,16.1,9.1,23.5c6.4,32.8,51.5,233.7,51.5,233.7s-16.1,20.5-2.1,47.2c14,26.6,26.3,26.6,28.6,43
	s-15.6,20.5-15.4,51.3c0.2,30.8,5.8,41,5.8,41h10.9c10.3,56.2,44,55.3,44,55.3h135.3l-42.2-63.7c-2.9-12.8-10.4-36.4-25.8-40.8
	c-21.4-6.1-31.5-34.8-22.1-55.4c9.4-20.4,7.1-51.2-12.4-88.1c-19.5-36.9-26.5-174.3-26.5-174.3s11.8-32.8,22.7-57.3
	c10.7-24.2,67.6-86.2,110-339.7c14.8-1.8,28.4-2.5,39.6-1.4c47.1,4.2,207.6,25.7,460.1,117.7c14.3,5.2,28.3,9.3,42.2,12.6
	c15.2,7.5,31.4,15,48,22.4c5.8,31,10.6,62.3,13,90.1c-13.9,47.2,4.7,73.8,9.4,106.6c4.7,32.8,39.2,233.7,39.2,233.7
	s-17.1,20.5-4.5,47.2c12.6,26.6,24.9,26.6,26.4,43c1.5,16.4-16.6,20.5-18,51.3c-1.4,30.8,3.6,41,3.6,41h10.9
	c7.3,56.2,41.1,55.3,41.1,55.3h135.3l-38.9-63.7c-2.2-12.8-8.4-36.4-23.6-40.8c-21.1-6.1-29.7-34.8-19.2-55.4
	c10.5-20.4,9.8-51.2-7.8-88.1c-17.6-36.9-17.4-174.3-17.4-174.3s13.5-32.8,25.7-57.3c6.6-13.3,27.8-38.2,54.8-100.1
	c41,14.1,68.1,22.8,68.1,22.8c10.4,38.8,41.1,43.3,41.1,43.3c-3.9,79.1,39.1,73.6-11.5,144c-9.6,13.4-6.6,34.3-1.8,50.7
	c-6.7-1.9-15-3.1-26.6-1.1c-30.3,5.4-39.2,12.5-39.2,12.5l2.4,10.7c-53.2,19.5-45,52.3-45,52.3l29.7,131.9l53.6-51.9
	c12-5.1,33.6-16.3,34.6-32.1c1.4-21.9,27.5-52.2,49.8-46.5c0,0,10.8,3.1,20.4-5c36.9-27.7,50.8-61.3,50.8-61.3s-11-123.1-4.2-215.4
	c6.7-92.3-52.9-126.1-52.9-126.1l-111.8-103.5c5.1-19.9,10.2-41.3,15.2-64.3c37.3-48.4,57.2-101.5,53.4-144.8
	c-8.8-144.7-47.8-240.5-65.5-277.1c9.1-83.5,45.1-141.8,65.9-169.4c18.1,22.6,45.9,37.2,77.2,37.2c17.3,0,33.6-4.5,47.7-12.3
	l143.5,125.1l0.1,0c18.2,16.1,42,25.9,68.2,25.9c57.1,0,103.4-46.3,103.4-103.4C2116.5,517.3,2113.2,502.9,2107.3,490z"/>
</svg>
