<?xml version="1.0" encoding="utf-8"?>
<!-- Generator: Adobe Illustrator 18.0.0, SVG Export Plug-In . SVG Version: 6.00 Build 0)  -->
<!DOCTYPE svg PUBLIC "-//W3C//DTD SVG 1.1//EN" "http://www.w3.org/Graphics/SVG/1.1/DTD/svg11.dtd">
<svg version="1.1" id="Layer_1" xmlns="http://www.w3.org/2000/svg" xmlns:xlink="http://www.w3.org/1999/xlink" x="0px" y="0px"
	 viewBox="0 0 974.5 952.5" enable-background="new 0 0 974.5 952.5" xml:space="preserve">
<g>
	<path fill="#231F20" stroke="#FFFFFF" stroke-width="0" stroke-linecap="round" stroke-linejoin="round" d="M920.7,820.3
		c0,0-120-178.7-120-516.6h-97.9h-19.6h-97.9c0,110.2-12.2,203.2-29.4,281.6c39.2,156.7,93,244.9,102.8,264.4h73.5v53.9h242.4v-83.3
		H920.7z"/>
	<path fill="#231F20" stroke="#FFFFFF" stroke-width="0" stroke-linecap="round" stroke-linejoin="round" d="M646.4,861.9
		c0-2.4-56.3-85.7-100.4-244.9c-29.4-107.7-56.3-249.8-56.3-426H225.3C222.8,621.9,68.6,857,68.6,859.4l-2.4,4.9H0v88.1h715v-53.9
		v-36.7h-66.1L646.4,861.9z"/>
	<path fill="#231F20" stroke="#FFFFFF" stroke-width="0" stroke-linecap="round" stroke-linejoin="round" d="M303.6,151.8
		c2.4,0,2.4,0,4.9,0c2.4,12.2,12.2,19.6,24.5,19.6c9.8,0,17.1-4.9,22-12.2c4.9,4.9,9.8,7.3,17.1,7.3c12.2,0,22-7.3,24.5-19.6
		c4.9,2.4,9.8,4.9,14.7,4.9c14.7,0,26.9-12.2,26.9-26.9c0-7.3-2.4-12.2-7.3-17.1c2.4-2.4,4.9-7.3,7.3-12.2c2.4,2.4,7.3,2.4,12.2,2.4
		c12.2,0,22-7.3,24.5-17.1c2.4,0,4.9,2.4,9.8,2.4c14.7,0,24.5-9.8,24.5-24.5h2.4c14.7,0,26.9-12.2,26.9-26.9S526.4,4.9,511.7,4.9
		c-4.9,0-9.8,2.4-12.2,4.9C494.6,2.4,487.3,0,479.9,0c-12.2,0-19.6,7.3-24.5,17.1c-2.4,0-4.9,0-7.3,0c-9.8,0-19.6,7.3-24.5,14.7
		c-2.4-2.4-7.3-2.4-9.8-2.4c-14.7,0-26.9,12.2-26.9,26.9c0,0,0,0,0,2.4c-4.9-2.4-9.8-4.9-14.7-4.9c-14.7,0-26.9,12.2-26.9,26.9
		c0,2.4,0,4.9,0,7.3c-2.4,0-4.9,0-7.3,0c-12.2,0-22,7.3-24.5,17.1c-4.9-2.4-7.3-2.4-12.2-2.4c-14.7,0-26.9,12.2-26.9,26.9
		C274.2,144.5,291.4,151.8,303.6,151.8z"/>
	<path fill="#231F20" stroke="#FFFFFF" stroke-width="0" stroke-linecap="round" stroke-linejoin="round" d="M644,264.4
		c2.4,0,2.4,0,4.9,0c2.4,9.8,12.2,17.1,22,17.1c7.3,0,14.7-4.9,19.6-9.8c4.9,2.4,9.8,4.9,14.7,4.9c9.8,0,19.6-7.3,22-17.1
		c2.4,2.4,7.3,4.9,12.2,4.9c12.2,0,22-9.8,22-22c0-4.9-2.4-9.8-4.9-14.7c2.4-2.4,4.9-7.3,4.9-9.8c2.4,2.4,7.3,2.4,9.8,2.4
		c9.8,0,17.1-7.3,22-14.7c2.4,0,4.9,2.4,7.3,2.4c12.2,0,22-9.8,22-19.6h2.4c12.2,0,22-9.8,22-22c0-12.2-9.8-22-22-22
		c-4.9,0-7.3,2.4-12.2,2.4c-4.9-4.9-9.8-9.8-17.1-9.8c-9.8,0-17.1,4.9-19.6,14.7c-2.4,0-4.9,0-4.9,0c-9.8,0-17.1,4.9-19.6,12.2
		c-7.3-4.9-9.8-4.9-14.7-4.9c-12.2,0-22,9.8-22,22c0,0,0,0,0,2.4c-2.4-2.4-7.3-2.4-12.2-2.4c-12.2,0-22,9.8-22,22c0,2.4,0,4.9,0,4.9
		c-2.4,0-4.9,0-4.9,0c-9.8,0-17.1,7.3-22,14.7c-2.4-2.4-7.3-2.4-9.8-2.4c-12.2,0-22,9.8-22,22C621.9,252.2,631.7,264.4,644,264.4z"
		/>
</g>
</svg>
