<?xml version="1.0" encoding="utf-8"?>
<!-- Generator: Adobe Illustrator 17.1.0, SVG Export Plug-In . SVG Version: 6.00 Build 0)  -->
<!DOCTYPE svg PUBLIC "-//W3C//DTD SVG 1.1//EN" "http://www.w3.org/Graphics/SVG/1.1/DTD/svg11.dtd">
<svg version="1.1" id="Capa_1" xmlns="http://www.w3.org/2000/svg" xmlns:xlink="http://www.w3.org/1999/xlink" x="0px" y="0px"
	 viewBox="0 -1116 1936 1936" enable-background="new 0 -1116 1936 1936" xml:space="preserve">
<g>
	<path d="M1071.5-266v-2.3c-0.5,0.8-1.1,1.5-1.5,2.3H1071.5z"/>
	<path d="M968-1116C433.4-1116,0-682.6,0-148s433.4,968,968,968s968-433.4,968-968S1502.6-1116,968-1116z M712.1,329H480.8v-695.9
		h231.3V329z M596.5-461.9H595c-77.6,0-127.9-53.5-127.9-120.3c0-68.3,51.8-120.2,130.9-120.2c79.2,0,127.8,52,129.3,120.2
		C727.4-515.4,677.2-461.9,596.5-461.9z M1546.4,329H1315V-43.4c0-93.5-33.4-157.3-117.2-157.3c-63.9,0-101.9,43-118.7,84.6
		c-6.1,14.9-7.7,35.5-7.7,56.4V329H840.1c0,0,3.1-630.6,0-695.9h231.4v98.6c30.7-47.3,85.6-115,208.5-115
		c152.2,0,266.4,99.5,266.4,313.2V329z"/>
</g>
</svg>
