<?xml version="1.0" encoding="utf-8"?>
<!-- Generator: Adobe Illustrator 17.1.0, SVG Export Plug-In . SVG Version: 6.00 Build 0)  -->
<!DOCTYPE svg PUBLIC "-//W3C//DTD SVG 1.1//EN" "http://www.w3.org/Graphics/SVG/1.1/DTD/svg11.dtd">
<svg version="1.1" id="Layer_1" xmlns="http://www.w3.org/2000/svg" xmlns:xlink="http://www.w3.org/1999/xlink" x="0px" y="0px"
	 viewBox="15.6 83.3 1029.1 833.9" enable-background="new 15.6 83.3 1029.1 833.9" xml:space="preserve">
<g>
	<path d="M146.2,642.4c-4.3-9.8-15.2-14.1-24.9-9.8L27,675c-9.8,4.3-14.1,15.2-9.8,24.9l91,205.9c4.3,9.8,15.2,14.1,24.9,9.8
		l94.3-42.3c9.8-4.3,14.1-15.2,9.8-24.9L146.2,642.4z"/>
	<path d="M1039.2,628.4c-10.8-18.4-46.6-28.2-98.6-3.3L808.3,688l-86.7,33.6c11.9,17.3,11.9,35.8,10.8,47.7
		c-2.2,11.9-11.9,20.6-23.8,20.6c-1.1,0-2.2,0-3.3,0l-145.2-19.5c-14.1-2.2-28.2-6.5-42.3-11.9l-58.5-23.8c-2.2-1.1-3.3-3.3-2.2-5.4
		c1.1-2.2,3.3-3.3,5.4-2.2l58.5,23.8c13,5.4,26,8.7,40.1,10.8l145.2,19.5c8.7,1.1,17.3-5.4,18.4-14.1c3.3-23.8-3.3-55.3-54.2-72.6
		L532,644.6l-62.9-28.2c-22.8-9.8-46.6-14.1-71.5-11.9l-89.9,7.6c-13,1.1-26,4.3-39,8.7l-105.1,39l73.7,166.9l62.9-32.5
		c16.3-8.7,34.7-9.8,52-4.3l262.3,87.8c18.4,6.5,37.9,4.3,55.3-5.4l363-203.7C1033.7,668.5,1054.3,655.5,1039.2,628.4z"/>
	<path d="M554.8,350.9c14.1,8.7,29.3,16.3,44.4,22.8c6.5,2.2,13,4.3,18.4,8.7c11.9,7.6,21.7,20.6,30.3,31.4
		c9.8,13,17.3,27.1,23.8,41.2c6.5,16.3,10.8,33.6,13,50.9c0,0,0,9.8,0,15.2L534.2,634.9l1.1,1.1l137.6,49.8
		c20.6,7.6,34.7,16.3,44.4,27.1l86.7-33.6l67.2-32.5L701.1,520l-7.6-34.7c3.3-7.6,9.8-22.8,9.8-23.8c5.4-10.8,13-21.7,20.6-31.4
		c7.6-8.7,16.3-16.3,24.9-22.8c8.7-5.4,17.3-11.9,28.2-14.1c4.3-1.1,9.8-1.1,15.2-1.1c11.9-1.1,23.8-2.2,34.7-5.4
		c28.2-6.5,57.4-19.5,75.9-43.3c36.8-48.8,15.2-126.8,15.2-126.8s-17.3,22.8-98.6,44.4c-81.3,21.7-76.9,114.9-76.9,114.9
		s37.9-53.1,93.2-68.3c0,0-76.9,54.2-97.5,87.8l-48.8,68.3l-17.3-58.5c-11.9-54.2-89.9-161.5-89.9-161.5
		C648,288.1,674,375.9,674,375.9s48.8-122.5-49.8-188.6c-98.6-66.1-111.6-104-111.6-104s-63.9,93.2-37.9,175.6
		C487.6,298.9,520.1,329.3,554.8,350.9z"/>
</g>
</svg>
