<?xml version="1.0" encoding="utf-8"?>
<!-- Generator: Adobe Illustrator 17.1.0, SVG Export Plug-In . SVG Version: 6.00 Build 0)  -->
<!DOCTYPE svg PUBLIC "-//W3C//DTD SVG 1.1//EN" "http://www.w3.org/Graphics/SVG/1.1/DTD/svg11.dtd">
<svg version="1.1" id="Layer_1" xmlns="http://www.w3.org/2000/svg" xmlns:xlink="http://www.w3.org/1999/xlink" x="0px" y="0px"
	 viewBox="0 0 4814.3 987.5" enable-background="new 0 0 4814.3 987.5" xml:space="preserve">
<g>
	<path fill="#FFFFFF" d="M518.8,867.6c-2.6,2.6-5,5.3-7.2,8.2v-73.2h-30.9v184.9h30.9v-35c24.2,2.1,49.1-6.1,67.6-24.6
		c22.3-22.3,29.7-54,22.1-82.4C572.9,837.9,541.2,845.3,518.8,867.6z"/>
	<path fill="#FFFFFF" d="M511.7,739.7V417c23.6,1.5,47.8-6.8,65.8-24.8c22.3-22.3,29.7-54,22.1-82.4c-28.4-7.6-60.1-0.3-82.4,22.1
		c-2,2-3.8,4-5.5,6.1v-85.2h-31v361.7c-3.3-5.3-7.2-10.2-11.8-14.8c-22.3-22.3-54-29.7-82.4-22.1c-7.6,28.4-0.3,60.1,22.1,82.4
		c19.6,19.7,46.6,27.7,72.1,24.2v55.5H511.7z"/>
	<path fill="#FFFFFF" d="M480.7,148v41.8h30.9V0h-30.9v83.6c-3.8-7-8.7-13.7-14.6-19.6c-22.3-22.3-54-29.7-82.4-22.1
		c-7.6,28.4-0.2,60,22.1,82.4C426.1,144.7,454.3,152.6,480.7,148z"/>
	<rect x="0" y="205.7" fill="#FFFFFF" width="253.8" height="30.9"/>
	<rect x="317" y="205.7" fill="#FFFFFF" width="357" height="30.9"/>
	<rect x="737.2" y="205.7" fill="#FFFFFF" width="250.4" height="30.9"/>
	<rect x="527.8" y="480.7" fill="#FFFFFF" width="355.7" height="31"/>
	<rect x="106.3" y="480.7" fill="#FFFFFF" width="358.3" height="31"/>
	<rect x="0" y="480.7" fill="#FFFFFF" width="43.1" height="31"/>
	<rect x="946.7" y="480.7" fill="#FFFFFF" width="41" height="31"/>
	<rect x="737.2" y="755.8" fill="#FFFFFF" width="250.4" height="30.9"/>
	<rect x="0" y="755.8" fill="#FFFFFF" width="253.8" height="30.9"/>
	<rect x="317" y="755.8" fill="#FFFFFF" width="357" height="30.9"/>
	<rect x="899.5" fill="#FFFFFF" width="31" height="189.6"/>
	<rect x="899.5" y="252.7" fill="#FFFFFF" width="31" height="486.9"/>
	<rect x="899.5" y="802.9" fill="#FFFFFF" width="31" height="184.6"/>
	<polygon fill="#FFFFFF" points="690.1,987.5 721.1,987.5 721.1,527.8 690.1,527.8 	"/>
	<rect x="690.1" y="0" fill="#FFFFFF" width="31" height="464.6"/>
	<rect x="59.2" y="252.7" fill="#FFFFFF" width="31" height="486.9"/>
	<rect x="59.2" fill="#FFFFFF" width="31" height="189.6"/>
	<rect x="59.2" y="798" fill="#FFFFFF" width="31" height="189.5"/>
	<polygon fill="#FFFFFF" points="270,987.5 300.9,987.5 300.9,527.8 270,527.8 	"/>
	<rect x="270" y="0" fill="#FFFFFF" width="30.9" height="464.6"/>
	<polygon fill="#FFFFFF" points="1358.3,283.5 1634,628.8 1670.3,628.8 1670.3,206.7 1628.6,206.7 1628.6,558 1348.8,206.1 
		1316.7,206.1 1316.7,628.8 1358.3,628.8 	"/>
	<path fill="#FFFFFF" d="M1781.3,606.8c9.3,8.7,20.2,15.6,32.7,20.5c12.5,5,26.1,7.4,40.8,7.4c25,0,48.3-5,70-14.9
		c21.6-9.9,39.6-24.2,53.9-42.9l1.2,24.4c0.4,9.1,3.5,16.3,9.2,21.4c5.7,5.2,13.8,7.7,24.1,7.7c3.6,0,8.7-0.6,15.5-1.8v-35.7
		c-9.9,0-14.9-5.6-14.9-16.7V436.5c0-38.5-11.1-68.7-33.3-90.5c-22.2-21.8-52.8-32.7-91.7-32.7c-37.7,0-76.6,13.5-116.7,40.5
		l14.3,26.8c17.1-11.9,33.9-21,50.6-27.4c16.7-6.3,32.9-9.5,48.8-9.5c27.4,0,48.8,8,64.3,24.1c15.5,16.1,23.2,37.8,23.2,65.2v28
		c-12.7-5.1-27.2-9.1-43.5-11.9c-16.3-2.8-32.3-4.2-48.2-4.2c-19.1,0-36.5,2.3-52.4,6.9c-15.9,4.6-29.6,11-41.1,19.3
		c-11.5,8.3-20.4,18.3-26.8,29.8c-6.4,11.5-9.5,24-9.5,37.5c0,13.5,2.6,26.1,7.7,37.8C1764.8,587.8,1772,598.1,1781.3,606.8z
		 M1817.4,488.3c17.9-11.9,41.1-17.9,69.7-17.9c15.1,0,29.9,1.4,44.4,4.2c14.5,2.8,28.5,6.8,42,11.9v50.6c0,3.6-0.9,7.4-2.7,11.6
		c-1.8,4.2-4.5,8-8,11.6c-9.1,13.1-22.5,23.6-40.2,31.6c-17.7,7.9-37,11.9-58,11.9c-10.3,0-20-1.8-29.2-5.4
		c-9.1-3.6-17-8.4-23.5-14.6c-6.5-6.1-11.7-13.4-15.5-21.7c-3.8-8.3-5.7-17.3-5.7-26.8C1790.6,515.9,1799.5,500.2,1817.4,488.3z"/>
	<path fill="#FFFFFF" d="M2124,572.9c0,9.9,1.8,18.7,5.4,26.2c3.6,7.5,8.3,13.8,14.3,18.8c5.9,5,12.9,8.6,20.8,11
		c7.9,2.4,16.3,3.6,25,3.6c8.3,0,16.3-0.8,23.8-2.4c7.5-1.6,14.3-3.4,20.2-5.4c6-2,11.2-4,15.8-6c4.6-2,8-3.6,10.4-4.8l-10.7-32.7
		c-2.4,1.6-7.9,4.3-16.7,8c-8.7,3.8-18.9,5.7-30.4,5.7c-9.5,0-18-2.7-25.3-8c-7.4-5.4-11.4-13.8-12.2-25.3V350.8h71.4v-32.1h-71.4
		V213.9H2124v104.8h-42.9v32.1h42.9V572.9z"/>
	<path fill="#FFFFFF" d="M2419.2,634.8c26.2,0,50.9-6.6,74.1-19.9c23.2-13.3,41.6-32,55.1-56.3v35.7c0,10.7,3,19.3,8.9,25.6
		c5.9,6.4,13.7,9.7,23.2,10.1h6.3c3,0,6.8-0.4,11.6-1.2v-35.7c-9.5,0-14.3-5.6-14.3-16.7V318.6h-40.5v195.3
		c-4.8,13.1-11,24.8-18.8,35.1c-7.7,10.3-16.5,19.3-26.2,26.8c-9.7,7.5-20.3,13.3-31.9,17.3c-11.5,4-23.2,6-35.1,6
		c-48,0-72-35.1-72-105.4v-175h-40.5v182.2c0,44.4,8.2,77.9,24.7,100.3C2360.4,623.6,2385.5,634.8,2419.2,634.8z"/>
	<path fill="#FFFFFF" d="M2728.2,435.9c8.3-25,22.6-44.7,42.9-58.9c20.2-14.3,44.1-21.8,71.4-22.6v-36.9c-2-0.4-4.6-0.6-7.7-0.6
		c-22.2,0-43.1,6.8-62.5,20.2c-19.5,13.5-34.9,32.1-46.4,56v-74.4h-38.1v310.2h40.5V435.9z"/>
	<path fill="#FFFFFF" d="M2908.9,606.8c9.3,8.7,20.2,15.6,32.7,20.5c12.5,5,26.1,7.4,40.8,7.4c25,0,48.3-5,70-14.9
		c21.6-9.9,39.6-24.2,53.9-42.9l1.2,24.4c0.4,9.1,3.5,16.3,9.2,21.4c5.7,5.2,13.8,7.7,24.1,7.7c3.6,0,8.7-0.6,15.5-1.8v-35.7
		c-9.9,0-14.9-5.6-14.9-16.7V436.5c0-38.5-11.1-68.7-33.3-90.5c-22.2-21.8-52.8-32.7-91.7-32.7c-37.7,0-76.6,13.5-116.7,40.5
		l14.3,26.8c17.1-11.9,33.9-21,50.6-27.4c16.7-6.3,32.9-9.5,48.8-9.5c27.4,0,48.8,8,64.3,24.1c15.5,16.1,23.2,37.8,23.2,65.2v28
		c-12.7-5.1-27.2-9.1-43.5-11.9c-16.3-2.8-32.4-4.2-48.2-4.2c-19.1,0-36.5,2.3-52.4,6.9c-15.9,4.6-29.6,11-41.1,19.3
		c-11.5,8.3-20.4,18.3-26.8,29.8c-6.4,11.5-9.5,24-9.5,37.5c0,13.5,2.6,26.1,7.7,37.8C2892.3,587.8,2899.6,598.1,2908.9,606.8z
		 M2944.9,488.3c17.9-11.9,41.1-17.9,69.7-17.9c15.1,0,29.9,1.4,44.4,4.2c14.5,2.8,28.5,6.8,42,11.9v50.6c0,3.6-0.9,7.4-2.7,11.6
		c-1.8,4.2-4.5,8-8,11.6c-9.1,13.1-22.5,23.6-40.2,31.6c-17.7,7.9-37,11.9-58,11.9c-10.3,0-20-1.8-29.2-5.4
		c-9.1-3.6-17-8.4-23.5-14.6c-6.6-6.1-11.7-13.4-15.5-21.7c-3.8-8.3-5.7-17.3-5.7-26.8C2918.1,515.9,2927.1,500.2,2944.9,488.3z"/>
	<path fill="#FFFFFF" d="M3334.9,593.7c-5.9,1.2-11.1,1.8-15.5,1.8c-11.5,0-20.4-3.3-26.8-9.8c-6.4-6.5-9.5-15.6-9.5-27.1V194.2
		h-40.5v378c0,19.1,5.4,33.8,16.1,44.4c10.7,10.5,25.4,15.8,44.1,15.8c7.9,0,17.4-1,28.3-3c10.9-2,20.1-4.6,27.7-7.7l-7.1-32.7
		C3346.4,590.9,3340.8,592.5,3334.9,593.7z"/>
	<polygon fill="#FFFFFF" points="3423,628.8 3464.6,628.8 3464.6,432.9 3663.5,432.9 3663.5,398.4 3464.6,398.4 3464.6,243 
		3700.4,243 3700.4,206.1 3423,206.1 	"/>
	<rect x="3777.2" y="194.2" fill="#FFFFFF" width="40.5" height="59.5"/>
	<rect x="3777.2" y="318.6" fill="#FFFFFF" width="40.5" height="310.2"/>
	<path fill="#FFFFFF" d="M4207.9,415.4c-6.5-19.2-15.9-36.5-28-51.8c-12.1-15.3-26.8-27.5-44-36.6c-17.3-9.1-36.8-13.7-58.6-13.7
		c-25.8,0-48.4,6.5-67.9,19.3c-19.4,12.9-36.1,29.9-50,50.9V194.2h-40.5v434.6h36.3v-60.1c11.5,19.5,27.5,35.3,47.9,47.6
		c20.4,12.3,43,18.5,67.6,18.5c20.6,0,40-4.3,58-12.8c18.1-8.5,33.6-20,46.7-34.5c13.1-14.5,23.4-31.4,31-50.9
		c7.5-19.4,11.3-40.1,11.3-61.9C4217.7,454.4,4214.5,434.6,4207.9,415.4z M4168,520.8c-5.8,14.9-13.7,28.2-23.8,39.9
		c-10.1,11.7-22.2,21-36.3,28c-14.1,7-29.7,10.4-46.7,10.4c-10.3,0-21.1-2-32.4-6c-11.3-4-21.8-9.3-31.5-16.1
		c-9.7-6.7-18.1-14.8-25-24.1c-6.9-9.3-11.2-19.4-12.8-30.1v-96.4c4.8-10.3,10.7-20.1,17.9-29.5c7.1-9.3,15.3-17.6,24.4-24.7
		c9.1-7.1,19.1-12.8,29.8-17c10.7-4.2,22.2-6.3,34.5-6.3c16.3,0,31.3,3.5,44.9,10.4c13.7,6.9,25.4,16.3,35.1,28
		c9.7,11.7,17.3,25.1,22.6,40.2c5.4,15.1,8,30.8,8,47C4176.7,490.5,4173.8,505.9,4168,520.8z"/>
	<path fill="#FFFFFF" d="M4542.2,360.9c-13.5-14.7-29.7-26.3-48.5-34.8c-18.9-8.5-39.6-12.8-62.2-12.8c-22.2,0-42.9,4.3-61.9,12.8
		c-19.1,8.5-35.4,20-49.1,34.5c-13.7,14.5-24.4,31.4-32.1,50.6c-7.7,19.3-11.6,39.8-11.6,61.6c0,22.2,3.9,43.1,11.6,62.5
		c7.7,19.5,18.6,36.6,32.5,51.5c13.9,14.9,30.3,26.6,49.1,35.1c18.8,8.5,39.6,12.8,62.2,12.8c15.1,0,29.6-1.9,43.5-5.7
		c13.9-3.8,26.6-9.1,38.1-16.1c11.5-6.9,21.6-15.1,30.4-24.4c8.7-9.3,15.5-19.7,20.2-31.3l-35.1-9.5c-3.6,8.3-8.7,16-15.5,22.9
		c-6.8,7-14.3,12.8-22.6,17.6c-8.3,4.8-17.5,8.5-27.4,11.3c-9.9,2.8-19.8,4.2-29.8,4.2c-15.1,0-29.3-2.9-42.6-8.6
		c-13.3-5.8-25.1-13.8-35.4-24.1c-10.3-10.3-18.7-22.5-25.3-36.6c-6.5-14.1-10.4-29.5-11.6-46.1h265.5c0.4-1.2,0.6-3.4,0.6-6.5v-9.5
		c0-21.4-3.8-41.7-11.3-60.7C4566.2,392.5,4555.7,375.6,4542.2,360.9z M4318.3,457.4c1.2-16.3,4.9-31.4,11-45.2
		c6.2-13.9,14.3-25.8,24.4-35.7c10.1-9.9,21.9-17.7,35.4-23.2c13.5-5.6,27.8-8.3,42.9-8.3c15.1,0,29.3,2.8,42.6,8.3
		c13.3,5.6,25,13.3,35.1,23.2c10.1,9.9,18.5,21.7,25,35.4c6.5,13.7,10.4,28.9,11.6,45.5H4318.3z"/>
	<path fill="#FFFFFF" d="M4806.5,316.9c-22.2,0-43.1,6.8-62.5,20.2c-19.4,13.5-34.9,32.1-46.4,56v-74.4h-38.1v310.2h40.5V435.9
		c8.3-25,22.6-44.7,42.9-58.9c20.2-14.3,44.1-21.8,71.4-22.6v-36.9C4812.3,317.1,4809.7,316.9,4806.5,316.9z"/>
	<polygon fill="#FFFFFF" points="3454.7,760.1 3427.8,760.1 3427.8,739.9 3423.3,739.9 3423.3,785.3 3427.8,785.3 3427.8,764.1 
		3454.7,764.1 3454.7,785.3 3459.2,785.3 3459.2,739.9 3454.7,739.9 	"/>
	<polygon fill="#FFFFFF" points="3532.7,764 3554.9,764 3554.9,760.2 3532.7,760.2 3532.7,743.8 3558.1,743.8 3558.1,739.9 
		3528.2,739.9 3528.2,785.3 3558.7,785.3 3558.7,781.3 3532.7,781.3 	"/>
	<polygon fill="#FFFFFF" points="3647.1,771 3629.4,739.9 3624.8,739.9 3624.8,785.3 3629.3,785.3 3629.3,748 3645.8,776.9 
		3648.5,776.9 3665,748 3665,785.3 3669.5,785.3 3669.5,739.9 3665,739.9 	"/>
	<path fill="#FFFFFF" d="M3767,744.4c-1.2-1.3-2.6-2.4-4.2-3.3c-1.6-0.8-3.4-1.2-5.4-1.2h-18.8v45.4h4.5v-16.8h14.7
		c2,0,3.8-0.4,5.3-1.2c1.6-0.8,3-1.9,4.1-3.2c1.2-1.3,2.1-2.8,2.7-4.6c0.6-1.7,1-3.5,1-5.4c0-1.7-0.3-3.5-1-5.2
		C3769.1,747.3,3768.2,745.7,3767,744.4z M3765.7,758.1c-0.4,1.3-1,2.4-1.8,3.3c-0.8,1-1.7,1.7-2.8,2.3c-1.1,0.6-2.3,0.9-3.6,0.9
		H3743v-20.7h14.1c1.2,0,2.4,0.3,3.6,0.8c1.1,0.5,2.1,1.3,2.9,2.2c0.8,0.9,1.5,2,2,3.3c0.5,1.3,0.7,2.6,0.7,4
		C3766.4,755.5,3766.1,756.8,3765.7,758.1z"/>
	<path fill="#FFFFFF" d="M3936.7,744.4c-1.2-1.3-2.6-2.4-4.3-3.3c-1.6-0.8-3.4-1.2-5.4-1.2h-18.8v45.4h4.5v-16.8h14.7
		c2,0,3.8-0.4,5.3-1.2c1.6-0.8,3-1.9,4.1-3.2c1.2-1.3,2.1-2.8,2.7-4.6c0.6-1.7,1-3.5,1-5.4c0-1.7-0.3-3.5-1-5.2
		C3938.8,747.3,3937.9,745.7,3936.7,744.4z M3935.4,758.1c-0.4,1.3-1,2.4-1.8,3.3c-0.8,1-1.7,1.7-2.8,2.3c-1.1,0.6-2.3,0.9-3.6,0.9
		h-14.5v-20.7h14.1c1.2,0,2.4,0.3,3.6,0.8c1.1,0.5,2.1,1.3,2.9,2.2c0.8,0.9,1.5,2,2,3.3c0.5,1.3,0.7,2.6,0.7,4
		C3936,755.5,3935.8,756.8,3935.4,758.1z"/>
	<path fill="#FFFFFF" d="M4032.3,766.1c1.2-0.8,2.3-1.9,3.2-3.1c0.9-1.2,1.6-2.6,2-4.1c0.5-1.5,0.7-3.1,0.7-4.8c0-1.7-0.3-3.5-1-5.2
		c-0.7-1.7-1.6-3.2-2.8-4.6c-1.2-1.3-2.6-2.4-4.3-3.3c-1.6-0.8-3.4-1.2-5.4-1.2h-19.2v45.4h4.5v-16.8h13.4l10.7,16.8h5.1l-11.1-17.5
		C4029.7,767.5,4031.1,766.9,4032.3,766.1z M4010.1,764.6v-20.7h14.5c1.2,0,2.4,0.3,3.5,0.8c1.1,0.6,2.1,1.3,2.9,2.2
		c0.8,0.9,1.5,2,2,3.3c0.5,1.3,0.7,2.6,0.7,3.9c0,1.4-0.2,2.7-0.6,3.9c-0.4,1.2-1,2.3-1.8,3.3c-0.8,1-1.7,1.8-2.8,2.3
		c-1.1,0.6-2.3,0.9-3.6,0.9H4010.1z"/>
	<path fill="#FFFFFF" d="M4138.8,746.9c-1.8-2.2-4.1-3.9-6.7-5.3c-2.6-1.3-5.5-2-8.7-2c-3,0-5.8,0.6-8.4,1.9c-2.6,1.3-4.9,3-6.8,5.1
		c-1.9,2.1-3.4,4.6-4.5,7.4c-1.1,2.8-1.6,5.7-1.6,8.7c0,2.9,0.5,5.7,1.5,8.5c1,2.8,2.5,5.2,4.4,7.4c1.9,2.2,4.1,3.9,6.7,5.2
		c2.6,1.3,5.5,2,8.7,2c3,0,5.8-0.6,8.5-1.9c2.6-1.3,4.8-2.9,6.7-5.1c1.9-2.1,3.4-4.6,4.5-7.3c1.1-2.8,1.6-5.7,1.6-8.7
		c0-2.9-0.5-5.7-1.5-8.4C4142.1,751.5,4140.6,749,4138.8,746.9z M4139,769.5c-0.8,2.3-1.9,4.3-3.4,6.1c-1.4,1.8-3.2,3.2-5.3,4.4
		c-2.1,1.1-4.4,1.7-7,1.7c-2.5,0-4.8-0.5-6.8-1.6c-2-1-3.8-2.4-5.3-4.2c-1.5-1.8-2.6-3.8-3.5-6.1c-0.8-2.3-1.2-4.7-1.2-7.1
		c0-2.3,0.4-4.7,1.2-6.9c0.8-2.3,1.9-4.3,3.4-6.1c1.5-1.8,3.2-3.2,5.3-4.3s4.4-1.6,7-1.6c2.5,0,4.7,0.5,6.8,1.6
		c2.1,1.1,3.8,2.4,5.3,4.2c1.5,1.8,2.7,3.8,3.5,6c0.8,2.3,1.3,4.7,1.3,7.1C4140.2,764.9,4139.8,767.2,4139,769.5z"/>
	<path fill="#FFFFFF" d="M4240.6,777c-1.1,1-2.2,1.9-3.5,2.6c-1.3,0.7-2.6,1.2-3.9,1.5c-1.3,0.3-2.7,0.5-3.9,0.5
		c-2.4,0-4.7-0.5-6.7-1.6c-2.1-1-3.9-2.5-5.4-4.2c-1.5-1.8-2.7-3.8-3.6-6.1c-0.9-2.3-1.3-4.7-1.3-7.2c0-2.3,0.4-4.6,1.1-6.8
		s1.8-4.3,3.2-6c1.4-1.8,3.2-3.2,5.3-4.4c2.1-1.1,4.5-1.7,7.2-1.7c1.2,0,2.5,0.1,3.8,0.4c1.3,0.3,2.5,0.7,3.7,1.4
		c1.2,0.6,2.3,1.5,3.4,2.5c1.1,1,1.9,2.3,2.7,3.8l3.5-2.2c-1.4-2.9-3.5-5.3-6.4-7.2c-2.9-1.8-6.3-2.8-10.4-2.8c-3.4,0-6.5,0.7-9.1,2
		c-2.7,1.3-4.9,3.1-6.8,5.2c-1.8,2.1-3.2,4.6-4.2,7.3c-1,2.7-1.4,5.4-1.4,8.2c0,2.9,0.5,5.7,1.6,8.5c1,2.8,2.5,5.3,4.4,7.5
		c1.9,2.2,4.1,4,6.7,5.3c2.6,1.4,5.5,2,8.6,2c1.8,0,3.5-0.2,5.3-0.7c1.8-0.5,3.5-1.2,5.2-2c1.6-0.9,3.1-2,4.4-3.3
		c1.3-1.3,2.3-2.8,3.1-4.5l-3.7-1.9C4242.5,774.7,4241.6,776,4240.6,777z"/>
	<polygon fill="#FFFFFF" points="4316.7,764 4338.9,764 4338.9,760.2 4316.7,760.2 4316.7,743.8 4342.2,743.8 4342.2,739.9 
		4312.3,739.9 4312.3,785.3 4342.8,785.3 4342.8,781.3 4316.7,781.3 	"/>
	<rect x="4600.9" y="739.9" fill="#FFFFFF" width="4.5" height="45.4"/>
	<polygon fill="#FFFFFF" points="4707.9,777.7 4677.8,739.9 4674.4,739.9 4674.4,785.3 4678.8,785.3 4678.8,748.2 4708.5,785.3 
		4712.4,785.3 4712.4,739.9 4707.9,739.9 	"/>
	<rect x="1316" y="756.4" fill="#FFFFFF" width="2040.2" height="29.9"/>
</g>
</svg>
